^D:\VISUAL STUDIO PROJECTS\HOMEWORK_13.4\HOMEWORK_13.4.CPP
D:\VISUAL STUDIO PROJECTS\HOMEWORK_13.4\DEBUG\VC142.PDB
D:\VISUAL STUDIO PROJECTS\HOMEWORK_13.4\DEBUG\VC142.IDB
D:\VISUAL STUDIO PROJECTS\HOMEWORK_13.4\DEBUG\HOMEWORK_13.4.OBJ
